<?xml version="1.0" encoding="UTF-8" standalone="no"?>
<!DOCTYPE svg PUBLIC "-//W3C//DTD SVG 1.1//EN"
 "http://www.w3.org/Graphics/SVG/1.1/DTD/svg11.dtd">
<!-- Generated by graphviz version 9.0.0 (0)
 -->
<!-- Title: packages_scrippy&#45;git Pages: 1 -->
<svg width="127pt" height="116pt"
 viewBox="0.00 0.00 126.75 116.00" xmlns="http://www.w3.org/2000/svg" xmlns:xlink="http://www.w3.org/1999/xlink">
<g id="graph0" class="graph" transform="scale(1 1) rotate(0) translate(4 112)">
<title>packages_scrippy&#45;git</title>
<polygon fill="white" stroke="none" points="-4,4 -4,-112 122.75,-112 122.75,4 -4,4"/>
<!-- scrippy_git -->
<g id="node1" class="node">
<title>scrippy_git</title>
<polygon fill="aliceblue" stroke="aliceblue" points="106.75,-108 12,-108 12,-72 106.75,-72 106.75,-108"/>
<text text-anchor="middle" x="59.38" y="-85.33" font-family="Times,serif" font-size="14.00">scrippy_git</text>
</g>
<!-- scrippy_git.git -->
<g id="node2" class="node">
<title>scrippy_git.git</title>
<polygon fill="antiquewhite" stroke="antiquewhite" points="118.75,-36 0,-36 0,0 118.75,0 118.75,-36"/>
<text text-anchor="middle" x="59.38" y="-13.32" font-family="Times,serif" font-size="14.00">scrippy_git.git</text>
</g>
<!-- scrippy_git.git&#45;&gt;scrippy_git -->
<g id="edge1" class="edge">
<title>scrippy_git.git&#45;&gt;scrippy_git</title>
<path fill="none" stroke="black" d="M59.38,-36.3C59.38,-43.68 59.38,-52.48 59.38,-60.75"/>
<polygon fill="black" stroke="black" points="59.38,-70.68 54.88,-60.68 59.38,-66.9 59.38,-60.68 59.38,-60.68 59.38,-60.68 59.38,-66.9 63.88,-60.68 59.38,-70.68"/>
</g>
</g>
</svg>
